<?xml version="1.0" encoding="UTF-8"?>
<svg
  width="18"
  height="17"
  viewBox="0 0 18 17"
  fill="none"
  xmlns="http://www.w3.org/2000/svg"
>
  <g>
    <path
      d="M14.5092 0C14.0828 0.00416943 13.6631 0.105428 13.2818 0.296085C12.9005 0.486742 12.5676 0.761784 12.3085 1.10032L10.4159 4.22524C10.358 4.29953 10.2848 4.36056 10.2013 4.40421C10.1178 4.44786 10.0259 4.47313 9.9318 4.47832C9.8346 4.48864 9.73631 4.4783 9.64339 4.44796C9.55047 4.41761 9.46502 4.36797 9.39265 4.30227L8.5564 3.46602C8.1939 3.10425 7.70411 2.89885 7.192 2.89385H7.08197C6.56293 2.89663 6.06548 3.10192 5.69556 3.46602L4.4852 4.64337C4.38107 4.74447 4.31451 4.87806 4.2965 5.02208C4.2785 5.16611 4.31013 5.31197 4.38617 5.4356L0.832127 9.04466C0.486755 9.39294 0.292969 9.86356 0.292969 10.354C0.292969 10.8445 0.486755 11.3152 0.832127 11.6634L1.44831 12.2796C1.54936 12.3757 1.67782 12.4379 1.81585 12.4576C1.95388 12.4773 2.09463 12.4536 2.21854 12.3896L2.86773 12.0265L2.50462 12.6757C2.44069 12.7996 2.41693 12.9404 2.43665 13.0784C2.45637 13.2164 2.51858 13.3449 2.61465 13.446L5.62954 16.4608C5.97781 16.8062 6.44844 17 6.93892 17C7.42941 17 7.90003 16.8062 8.24831 16.4608L11.8024 12.9068C11.9276 12.9813 12.0738 13.0131 12.2187 12.9972C12.3636 12.9813 12.4994 12.9187 12.6056 12.8188L13.7939 11.5864C13.9772 11.4053 14.1223 11.1893 14.2206 10.9512C14.3188 10.7131 14.3683 10.4576 14.3661 10.2V10.145C14.3766 9.8781 14.331 9.61199 14.2325 9.36375C14.134 9.1155 13.9846 8.89062 13.7939 8.70356L12.9577 7.86731C12.8383 7.743 12.7713 7.57753 12.7706 7.40518C12.7668 7.29847 12.7876 7.1923 12.8315 7.09496C12.8754 6.99762 12.9412 6.91174 13.0237 6.84401L16.1816 4.96246C16.519 4.70223 16.7932 4.36914 16.9837 3.98808C17.1742 3.60701 17.2762 3.18782 17.282 2.76181C17.2762 2.02922 16.9818 1.32844 16.4628 0.811431C15.9437 0.294424 15.2418 0.00287287 14.5092 0ZM4.99135 9.89191C4.89129 9.79032 4.76057 9.72449 4.61937 9.70461C4.47817 9.68472 4.33435 9.71187 4.21012 9.78188L2.00947 11.0032L1.73439 10.7392C1.63409 10.6318 1.57893 10.49 1.58035 10.343C1.57949 10.1995 1.63477 10.0613 1.73439 9.95793L5.28844 6.41489L10.8781 11.9935L7.33504 15.5366C7.23034 15.6381 7.09025 15.6948 6.94443 15.6948C6.7986 15.6948 6.65851 15.6381 6.55381 15.5366L3.89103 12.8628L5.11239 10.6621C5.17834 10.538 5.2022 10.3957 5.18037 10.2568C5.15855 10.1179 5.09221 9.98987 4.99135 9.89191ZM11.4833 7.40518C11.4823 7.66262 11.5323 7.9177 11.6305 8.15567C11.7287 8.39364 11.8732 8.60978 12.0554 8.79159L12.8917 9.61683C13.0167 9.74277 13.0878 9.9125 13.0897 10.09V10.2C13.0878 10.3775 13.0167 10.5472 12.8917 10.6731L12.1325 11.4324L5.86061 5.13851L6.60883 4.39029C6.67049 4.32738 6.74412 4.27745 6.82538 4.24344C6.90663 4.20942 6.99388 4.19201 7.08197 4.19223H7.192C7.28027 4.19072 7.3679 4.20755 7.44934 4.24164C7.53078 4.27573 7.60426 4.32635 7.66514 4.39029L8.50138 5.21553C8.70271 5.40599 8.94216 5.55155 9.20392 5.64259C9.46567 5.73364 9.74377 5.7681 10.0198 5.74369C10.3047 5.72415 10.582 5.64324 10.8327 5.50649C11.0834 5.36975 11.3016 5.18041 11.4723 4.95146L13.3208 1.85955C13.449 1.69287 13.6112 1.55531 13.7966 1.45599C13.9819 1.35666 14.1863 1.29782 14.3961 1.28337C14.6059 1.26892 14.8163 1.29918 15.0136 1.37215C15.2108 1.44511 15.3903 1.55913 15.5402 1.70665C15.69 1.85417 15.8069 2.03184 15.883 2.22789C15.959 2.42394 15.9926 2.63391 15.9815 2.84392C15.9704 3.05392 15.9148 3.25916 15.8184 3.44608C15.722 3.63299 15.587 3.7973 15.4224 3.92816L12.2755 5.83172C12.033 6.01622 11.8364 6.25419 11.7009 6.52709C11.5654 6.8 11.4947 7.10049 11.4943 7.40518H11.4833Z"
      fill="#CBD1DD"
    />
  </g>
  <defs>
    <clipPath>
      <rect
        width="17"
        height="17"
        fill="white"
        transform="translate(0.292969)"
      />
    </clipPath>
  </defs>
</svg>
