<?xml version="1.0" encoding="UTF-8"?>
<svg
  width="22"
  height="22"
  viewBox="0 0 22 22"
  fill="none"
  xmlns="http://www.w3.org/2000/svg"
>
  <path
    d="M17.4167 3.66797H4.58333C3.57081 3.66797 2.75 4.48878 2.75 5.5013V18.3346C2.75 19.3472 3.57081 20.168 4.58333 20.168H17.4167C18.4292 20.168 19.25 19.3472 19.25 18.3346V5.5013C19.25 4.48878 18.4292 3.66797 17.4167 3.66797Z"
    stroke="#1A06F9"
    strokeWidth="1.6"
    strokeLinecap="round"
    strokeLinejoin="round"
  />
  <path
    d="M14.668 1.83203V5.4987"
    stroke="#1A06F9"
    strokeWidth="1.6"
    strokeLinecap="round"
    strokeLinejoin="round"
  />
  <path
    d="M7.33203 1.83203V5.4987"
    stroke="#1A06F9"
    strokeWidth="1.6"
    strokeLinecap="round"
    strokeLinejoin="round"
  />
  <path
    d="M2.75 9.16797H19.25"
    stroke="#1A06F9"
    strokeWidth="1.6"
    strokeLinecap="round"
    strokeLinejoin="round"
  />
</svg>
