<?xml version="1.0" encoding="UTF-8"?>
<svg
  width="17"
  height="16"
  viewBox="0 0 17 16"
  fill="none"
  xmlns="http://www.w3.org/2000/svg"
>
  <g>
    <path
      d="M15.9194 3.21555L15.5013 2.18124L12.3984 5.28416L11.3641 5.03108L11.111 3.99678L14.2139 0.893866L13.1796 0.475743C12.5764 0.225331 11.9292 0.0981314 11.2761 0.101633C9.9852 0.0996463 8.74345 0.596346 7.81006 1.48804L7.65601 1.64209C7.01896 2.30971 6.57745 3.13944 6.37963 4.04079C6.20344 4.78979 6.20344 5.56946 6.37963 6.31846L1.10908 11.622C0.91704 11.8142 0.764749 12.0424 0.660911 12.2935C0.557072 12.5446 0.503722 12.8137 0.503907 13.0855C0.504219 13.6373 0.721594 14.1669 1.10908 14.5599L1.91232 15.3631C2.29772 15.7044 2.79496 15.8923 3.30973 15.8913C3.58145 15.8915 3.85055 15.8381 4.10165 15.7343C4.35275 15.6304 4.58093 15.4781 4.77316 15.2861L10.0767 9.98254C10.469 10.0801 10.8719 10.1282 11.2761 10.1256C12.5683 10.1345 13.8125 9.63681 14.7421 8.73917L14.8081 8.67315L14.8851 8.59613C15.5618 7.89682 16.02 7.01547 16.2037 6.05989C16.3874 5.1043 16.2886 4.11589 15.9194 3.21555ZM7.94209 6.28545C7.75712 5.75501 7.70093 5.18819 7.77816 4.63175C7.85539 4.07532 8.06382 3.54522 8.38626 3.08521C8.7087 2.62519 9.13591 2.24844 9.63263 1.98604C10.1293 1.72365 10.6813 1.58312 11.2431 1.57607H11.3971L9.52656 3.53464L10.1978 6.25244L12.7835 6.89063H12.9046L14.8081 4.96506C14.8335 5.54202 14.717 6.1164 14.4689 6.6379C14.2208 7.15939 13.8486 7.61209 13.3849 7.95634C12.9212 8.30058 12.3801 8.52587 11.8091 8.61248C11.2382 8.69908 10.6547 8.64435 10.1097 8.45309L9.6696 8.29904L3.72785 14.2408C3.6122 14.3467 3.46106 14.4055 3.30423 14.4055C3.1474 14.4055 2.99626 14.3467 2.88061 14.2408L2.1654 13.5146C2.10716 13.4597 2.06132 13.3931 2.03096 13.3191C2.00059 13.245 1.98641 13.1654 1.98934 13.0855C1.98797 13.0073 2.00292 12.9298 2.03323 12.8578C2.06355 12.7858 2.10856 12.7209 2.1654 12.6673L7.99711 6.82461L8.09614 6.72558L7.94209 6.28545Z"
      fill="#CBD1DD"
    />
  </g>
  <defs>
    <clipPath>
      <rect
        width="15.7896"
        height="15.7896"
        fill="white"
        transform="translate(0.503906 0.101562)"
      />
    </clipPath>
  </defs>
</svg>
