{
  "department": "DELIVERY",
  "totalDep": 7,
  "goalDep": 43,
  "details": [
    {
      "typeAction": "CREATE_DELIVERY",
      "labelAction": "Delivery",
      "iconAction": "deliv",
      "total": 7,
      "goal": 43,
      "evolution": {
        "percent": 37,
        "data": [
          -1,
          -1,
          -1,
          -1,
          75,
          -1,
          -1,
          -1,
          -1,
          -1,
          74,
          -1,
          -1,
          -1,
          -1,
          22,
          -1,
          -1,
          -1,
          -1,
          50,
          -1,
          -1,
          44,
          -1,
          -1,
          11,
          -1,
          -1,
          50
        ],
        "highlights": [
          -1,
          -1,
          48,
          -1,
          74,
          -1,
          11,
          65
        ]
      },
      "avg": null
    }
  ]
}
