{
  "department": "ESTHETIC",
  "totalDep": 44,
  "goalDep": 70,
  "details": [
    {
      "typeAction": "PHOTO",
      "labelAction": "Photo",
      "iconAction": "photo",
      "total": 30,
      "goal": 40,
      "evolution": {
        "percent": 40,
        "data": [
          -1,
          -1,
          -1,
          -1,
          36,
          -1,
          -1,
          -1,
          11,
          -1,
          -1,
          -1,
          -1,
          70,
          -1,
          -1,
          -1,
          51,
          -1,
          -1,
          -1,
          -1,
          -1,
          94,
          -1,
          -1,
          -1,
          40,
          -1,
          74
        ],
        "highlights": [
          -1,
          -1,
          54,
          -1,
          66,
          -1,
          84,
          40
        ]
      },
      "avg": [
        -1.0,
        -1.0,
        -1.0,
        -1.0,
        -1.0,
        -1.0,
        -1.0,
        -1.0,
        -1.0,
        -1.0,
        -1.0,
        56,
        -1.0,
        -1.0,
        -1.0,
        -1.0,
        28,
        -1.0,
        -1.0,
        -1.0,
        -1.0,
        -1.0,
        -1.0,
        74,
        -1.0,
        -1.0,
        83,
        -1.0,
        -1.0,
        -1.0
      ]
    },
    {
      "typeAction": "WASHING",
      "labelAction": "Washings",
      "iconAction": "wash",
      "total": 10,
      "goal": 20,
      "evolution": {
        "percent": 0,
        "data": [
          -1,
          -1,
          -1,
          -1,
          -1,
          -1,
          -1,
          -1,
          -1,
          50,
          -1,
          -1,
          -1,
          90,
          -1,
          -1,
          -1,
          -1,
          -1,
          36,
          -1,
          -1,
          -1,
          75,
          -1,
          -1,
          -1,
          11,
          -1,
          40
        ],
        "highlights": [
          -1,
          -1,
          53,
          -1,
          69,
          -1,
          44,
          74
        ]
      },
      "avg": [
        -1.0,
        -1.0,
        -1.0,
        -1.0,
        -1.0,
        -1.0,
        -1.0,
        -1.0,
        -1.0,
        64,
        -1.0,
        -1.0,
        -1.0,
        -1.0,
        -1.0,
        -1.0,
        58,
        -1.0,
        -1.0,
        -1.0,
        -1.0,
        -1.0,
        95,
        -1.0,
        -1.0,
        -1.0,
        -1.0,
        48,
        -1.0,
        75
      ]
    }
  ]
}
